myProject1/myProject1.sim/sim_1/behav/xsim/simulate.log
Time resolution is 1 ps
Configuration completed                      0 ns
1. Accuracy: 100.000000, Detected number: 7, Expected: 0007
2. Accuracy: 50.000000, Detected number: 1, Expected: 0002
3. Accuracy: 66.666667, Detected number: 1, Expected: 0001
4. Accuracy: 75.000000, Detected number: 0, Expected: 0000
5. Accuracy: 60.000000, Detected number: 0, Expected: 0004
6. Accuracy: 66.666667, Detected number: 1, Expected: 0001
7. Accuracy: 71.428571, Detected number: 4, Expected: 0004
8. Accuracy: 62.500000, Detected number: 7, Expected: 0009
9. Accuracy: 66.666667, Detected number: 5, Expected: 0005
10. Accuracy: 60.000000, Detected number: 4, Expected: 0009
11. Accuracy: 63.636364, Detected number: 0, Expected: 0000
12. Accuracy: 66.666667, Detected number: 6, Expected: 0006
13. Accuracy: 69.230769, Detected number: 9, Expected: 0009
14. Accuracy: 71.428571, Detected number: 0, Expected: 0000
15. Accuracy: 73.333333, Detected number: 1, Expected: 0001
16. Accuracy: 75.000000, Detected number: 5, Expected: 0005
17. Accuracy: 76.470588, Detected number: 9, Expected: 0009
18. Accuracy: 77.777778, Detected number: 7, Expected: 0007
19. Accuracy: 73.684211, Detected number: 8, Expected: 0003
20. Accuracy: 75.000000, Detected number: 4, Expected: 0004
21. Accuracy: 76.190476, Detected number: 9, Expected: 0009
22. Accuracy: 77.272727, Detected number: 6, Expected: 0006
23. Accuracy: 78.260870, Detected number: 6, Expected: 0006
24. Accuracy: 79.166667, Detected number: 5, Expected: 0005
25. Accuracy: 80.000000, Detected number: 4, Expected: 0004
26. Accuracy: 80.769231, Detected number: 0, Expected: 0000
27. Accuracy: 81.481481, Detected number: 7, Expected: 0007
28. Accuracy: 82.142857, Detected number: 4, Expected: 0004
29. Accuracy: 82.758621, Detected number: 0, Expected: 0000
30. Accuracy: 83.333333, Detected number: 1, Expected: 0001
31. Accuracy: 83.870968, Detected number: 3, Expected: 0003
32. Accuracy: 84.375000, Detected number: 1, Expected: 0001
33. Accuracy: 84.848485, Detected number: 3, Expected: 0003
34. Accuracy: 82.352941, Detected number: 0, Expected: 0004
35. Accuracy: 82.857143, Detected number: 7, Expected: 0007
36. Accuracy: 83.333333, Detected number: 2, Expected: 0002
37. Accuracy: 81.081081, Detected number: 2, Expected: 0007
38. Accuracy: 81.578947, Detected number: 1, Expected: 0001
39. Accuracy: 82.051282, Detected number: 2, Expected: 0002
40. Accuracy: 82.500000, Detected number: 1, Expected: 0001
41. Accuracy: 82.926829, Detected number: 1, Expected: 0001
42. Accuracy: 83.333333, Detected number: 7, Expected: 0007
43. Accuracy: 81.395349, Detected number: 9, Expected: 0004
44. Accuracy: 79.545455, Detected number: 1, Expected: 0002
45. Accuracy: 77.777778, Detected number: 1, Expected: 0003
46. Accuracy: 76.086957, Detected number: 0, Expected: 0005
47. Accuracy: 76.595745, Detected number: 1, Expected: 0001
48. Accuracy: 77.083333, Detected number: 2, Expected: 0002
49. Accuracy: 75.510204, Detected number: 2, Expected: 0004
50. Accuracy: 76.000000, Detected number: 4, Expected: 0004
51. Accuracy: 76.470588, Detected number: 6, Expected: 0006
52. Accuracy: 76.923077, Detected number: 3, Expected: 0003
53. Accuracy: 77.358491, Detected number: 5, Expected: 0005
54. Accuracy: 77.777778, Detected number: 5, Expected: 0005
55. Accuracy: 78.181818, Detected number: 6, Expected: 0006
56. Accuracy: 78.571429, Detected number: 0, Expected: 0000
57. Accuracy: 78.947368, Detected number: 4, Expected: 0004
58. Accuracy: 79.310345, Detected number: 1, Expected: 0001
59. Accuracy: 79.661017, Detected number: 9, Expected: 0009
60. Accuracy: 80.000000, Detected number: 5, Expected: 0005
61. Accuracy: 80.327869, Detected number: 7, Expected: 0007
62. Accuracy: 80.645161, Detected number: 8, Expected: 0008
63. Accuracy: 80.952381, Detected number: 9, Expected: 0009
64. Accuracy: 81.250000, Detected number: 3, Expected: 0003
65. Accuracy: 81.538462, Detected number: 7, Expected: 0007
66. Accuracy: 81.818182, Detected number: 4, Expected: 0004
67. Accuracy: 82.089552, Detected number: 6, Expected: 0006
68. Accuracy: 80.882353, Detected number: 2, Expected: 0004
69. Accuracy: 81.159420, Detected number: 3, Expected: 0003
70. Accuracy: 81.428571, Detected number: 0, Expected: 0000
71. Accuracy: 81.690141, Detected number: 7, Expected: 0007
72. Accuracy: 81.944444, Detected number: 0, Expected: 0000
73. Accuracy: 82.191781, Detected number: 2, Expected: 0002
74. Accuracy: 81.081081, Detected number: 7, Expected: 0009
75. Accuracy: 81.333333, Detected number: 1, Expected: 0001
76. Accuracy: 81.578947, Detected number: 7, Expected: 0007
77. Accuracy: 81.818182, Detected number: 3, Expected: 0003
78. Accuracy: 82.051282, Detected number: 2, Expected: 0002
79. Accuracy: 81.012658, Detected number: 8, Expected: 0009
80. Accuracy: 81.250000, Detected number: 7, Expected: 0007
81. Accuracy: 81.481481, Detected number: 7, Expected: 0007
82. Accuracy: 80.487805, Detected number: 0, Expected: 0006
83. Accuracy: 80.722892, Detected number: 2, Expected: 0002
84. Accuracy: 80.952381, Detected number: 7, Expected: 0007
85. Accuracy: 81.176471, Detected number: 8, Expected: 0008
86. Accuracy: 80.232558, Detected number: 2, Expected: 0004
87. Accuracy: 80.459770, Detected number: 7, Expected: 0007
88. Accuracy: 80.681818, Detected number: 3, Expected: 0003
89. Accuracy: 80.898876, Detected number: 6, Expected: 0006
90. Accuracy: 81.111111, Detected number: 1, Expected: 0001
91. Accuracy: 81.318681, Detected number: 3, Expected: 0003
92. Accuracy: 81.521739, Detected number: 6, Expected: 0006
93. Accuracy: 80.645161, Detected number: 4, Expected: 0009
94. Accuracy: 80.851064, Detected number: 3, Expected: 0003
95. Accuracy: 81.052632, Detected number: 1, Expected: 0001
96. Accuracy: 80.208333, Detected number: 8, Expected: 0004
97. Accuracy: 80.412371, Detected number: 1, Expected: 0001
98. Accuracy: 79.591837, Detected number: 1, Expected: 0007
99. Accuracy: 79.797980, Detected number: 6, Expected: 0006
100. Accuracy: 80.000000, Detected number: 9, Expected: 0009
Accuracy: 80.000000
$stop called at time : 900235 ns : File "E:/NN Accelerator/src/fpga/tb/top_sim.v" Line 358
Configuration completed                      0 ns
1. Accuracy: 100.000000, Detected number: 7, Expected: 0007
2. Accuracy: 100.000000, Detected number: 2, Expected: 0002
3. Accuracy: 100.000000, Detected number: 1, Expected: 0001
4. Accuracy: 100.000000, Detected number: 0, Expected: 0000
5. Accuracy: 100.000000, Detected number: 4, Expected: 0004
6. Accuracy: 100.000000, Detected number: 1, Expected: 0001
7. Accuracy: 100.000000, Detected number: 4, Expected: 0004
8. Accuracy: 100.000000, Detected number: 9, Expected: 0009
9. Accuracy: 88.888889, Detected number: 2, Expected: 0005
10. Accuracy: 80.000000, Detected number: 4, Expected: 0009
11. Accuracy: 81.818182, Detected number: 0, Expected: 0000
12. Accuracy: 75.000000, Detected number: 8, Expected: 0006
13. Accuracy: 76.923077, Detected number: 9, Expected: 0009
14. Accuracy: 78.571429, Detected number: 0, Expected: 0000
15. Accuracy: 80.000000, Detected number: 1, Expected: 0001
16. Accuracy: 81.250000, Detected number: 5, Expected: 0005
17. Accuracy: 82.352941, Detected number: 9, Expected: 0009
18. Accuracy: 83.333333, Detected number: 7, Expected: 0007
19. Accuracy: 78.947368, Detected number: 8, Expected: 0003
20. Accuracy: 80.000000, Detected number: 4, Expected: 0004
21. Accuracy: 80.952381, Detected number: 9, Expected: 0009
22. Accuracy: 81.818182, Detected number: 6, Expected: 0006
23. Accuracy: 82.608696, Detected number: 6, Expected: 0006
24. Accuracy: 83.333333, Detected number: 5, Expected: 0005
25. Accuracy: 84.000000, Detected number: 4, Expected: 0004
26. Accuracy: 84.615385, Detected number: 0, Expected: 0000
27. Accuracy: 85.185185, Detected number: 7, Expected: 0007
28. Accuracy: 85.714286, Detected number: 4, Expected: 0004
29. Accuracy: 86.206897, Detected number: 0, Expected: 0000
30. Accuracy: 86.666667, Detected number: 1, Expected: 0001
31. Accuracy: 87.096774, Detected number: 3, Expected: 0003
32. Accuracy: 87.500000, Detected number: 1, Expected: 0001
33. Accuracy: 87.878788, Detected number: 3, Expected: 0003
34. Accuracy: 85.294118, Detected number: 0, Expected: 0004
35. Accuracy: 85.714286, Detected number: 7, Expected: 0007
36. Accuracy: 86.111111, Detected number: 2, Expected: 0002
37. Accuracy: 86.486486, Detected number: 7, Expected: 0007
38. Accuracy: 86.842105, Detected number: 1, Expected: 0001
39. Accuracy: 87.179487, Detected number: 2, Expected: 0002
40. Accuracy: 87.500000, Detected number: 1, Expected: 0001
41. Accuracy: 87.804878, Detected number: 1, Expected: 0001
42. Accuracy: 88.095238, Detected number: 7, Expected: 0007
43. Accuracy: 88.372093, Detected number: 4, Expected: 0004
44. Accuracy: 88.636364, Detected number: 2, Expected: 0002
45. Accuracy: 86.666667, Detected number: 8, Expected: 0003
46. Accuracy: 84.782609, Detected number: 0, Expected: 0005
47. Accuracy: 82.978723, Detected number: 2, Expected: 0001
48. Accuracy: 83.333333, Detected number: 2, Expected: 0002
49. Accuracy: 81.632653, Detected number: 8, Expected: 0004
50. Accuracy: 82.000000, Detected number: 4, Expected: 0004
51. Accuracy: 82.352941, Detected number: 6, Expected: 0006
52. Accuracy: 82.692308, Detected number: 3, Expected: 0003
53. Accuracy: 83.018868, Detected number: 5, Expected: 0005
54. Accuracy: 83.333333, Detected number: 5, Expected: 0005
55. Accuracy: 83.636364, Detected number: 6, Expected: 0006
56. Accuracy: 83.928571, Detected number: 0, Expected: 0000
57. Accuracy: 84.210526, Detected number: 4, Expected: 0004
58. Accuracy: 84.482759, Detected number: 1, Expected: 0001
59. Accuracy: 84.745763, Detected number: 9, Expected: 0009
60. Accuracy: 83.333333, Detected number: 8, Expected: 0005
61. Accuracy: 83.606557, Detected number: 7, Expected: 0007
62. Accuracy: 83.870968, Detected number: 8, Expected: 0008
63. Accuracy: 84.126984, Detected number: 9, Expected: 0009
64. Accuracy: 84.375000, Detected number: 3, Expected: 0003
65. Accuracy: 84.615385, Detected number: 7, Expected: 0007
66. Accuracy: 83.333333, Detected number: 9, Expected: 0004
67. Accuracy: 83.582090, Detected number: 6, Expected: 0006
68. Accuracy: 83.823529, Detected number: 4, Expected: 0004
69. Accuracy: 84.057971, Detected number: 3, Expected: 0003
70. Accuracy: 84.285714, Detected number: 0, Expected: 0000
71. Accuracy: 84.507042, Detected number: 7, Expected: 0007
72. Accuracy: 84.722222, Detected number: 0, Expected: 0000
73. Accuracy: 83.561644, Detected number: 5, Expected: 0002
74. Accuracy: 83.783784, Detected number: 9, Expected: 0009
75. Accuracy: 84.000000, Detected number: 1, Expected: 0001
76. Accuracy: 84.210526, Detected number: 7, Expected: 0007
77. Accuracy: 84.415584, Detected number: 3, Expected: 0003
78. Accuracy: 84.615385, Detected number: 2, Expected: 0002
79. Accuracy: 83.544304, Detected number: 8, Expected: 0009
80. Accuracy: 82.500000, Detected number: 8, Expected: 0007
81. Accuracy: 82.716049, Detected number: 7, Expected: 0007
82. Accuracy: 81.707317, Detected number: 0, Expected: 0006
83. Accuracy: 81.927711, Detected number: 2, Expected: 0002
84. Accuracy: 82.142857, Detected number: 7, Expected: 0007
85. Accuracy: 82.352941, Detected number: 8, Expected: 0008
86. Accuracy: 82.558140, Detected number: 4, Expected: 0004
87. Accuracy: 82.758621, Detected number: 7, Expected: 0007
88. Accuracy: 82.954545, Detected number: 3, Expected: 0003
89. Accuracy: 83.146067, Detected number: 6, Expected: 0006
90. Accuracy: 83.333333, Detected number: 1, Expected: 0001
91. Accuracy: 83.516484, Detected number: 3, Expected: 0003
92. Accuracy: 83.695652, Detected number: 6, Expected: 0006
93. Accuracy: 83.870968, Detected number: 9, Expected: 0009
94. Accuracy: 84.042553, Detected number: 3, Expected: 0003
95. Accuracy: 84.210526, Detected number: 1, Expected: 0001
96. Accuracy: 83.333333, Detected number: 9, Expected: 0004
97. Accuracy: 83.505155, Detected number: 1, Expected: 0001
98. Accuracy: 83.673469, Detected number: 7, Expected: 0007
99. Accuracy: 83.838384, Detected number: 6, Expected: 0006
100. Accuracy: 84.000000, Detected number: 9, Expected: 0009
Accuracy: 84.000000
$stop called at time : 900235 ns : File "E:/NN Accelerator/src/fpga/tb/top_sim.v" Line 358
Configuration completed                      0 ns
1. Accuracy: 100.000000, Detected number: 7, Expected: 0007
2. Accuracy: 100.000000, Detected number: 2, Expected: 0002
3. Accuracy: 100.000000, Detected number: 1, Expected: 0001
4. Accuracy: 100.000000, Detected number: 0, Expected: 0000
5. Accuracy: 100.000000, Detected number: 4, Expected: 0004
6. Accuracy: 100.000000, Detected number: 1, Expected: 0001
7. Accuracy: 85.714286, Detected number: 8, Expected: 0004
8. Accuracy: 87.500000, Detected number: 9, Expected: 0009
9. Accuracy: 77.777778, Detected number: 0, Expected: 0005
10. Accuracy: 80.000000, Detected number: 9, Expected: 0009
11. Accuracy: 81.818182, Detected number: 0, Expected: 0000
12. Accuracy: 75.000000, Detected number: 8, Expected: 0006
13. Accuracy: 76.923077, Detected number: 9, Expected: 0009
14. Accuracy: 78.571429, Detected number: 0, Expected: 0000
15. Accuracy: 80.000000, Detected number: 1, Expected: 0001
16. Accuracy: 81.250000, Detected number: 5, Expected: 0005
17. Accuracy: 76.470588, Detected number: 8, Expected: 0009
18. Accuracy: 77.777778, Detected number: 7, Expected: 0007
19. Accuracy: 73.684211, Detected number: 6, Expected: 0003
20. Accuracy: 75.000000, Detected number: 4, Expected: 0004
21. Accuracy: 76.190476, Detected number: 9, Expected: 0009
22. Accuracy: 77.272727, Detected number: 6, Expected: 0006
23. Accuracy: 78.260870, Detected number: 6, Expected: 0006
24. Accuracy: 79.166667, Detected number: 5, Expected: 0005
25. Accuracy: 80.000000, Detected number: 4, Expected: 0004
26. Accuracy: 80.769231, Detected number: 0, Expected: 0000
27. Accuracy: 81.481481, Detected number: 7, Expected: 0007
28. Accuracy: 82.142857, Detected number: 4, Expected: 0004
29. Accuracy: 82.758621, Detected number: 0, Expected: 0000
30. Accuracy: 83.333333, Detected number: 1, Expected: 0001
31. Accuracy: 83.870968, Detected number: 3, Expected: 0003
32. Accuracy: 84.375000, Detected number: 1, Expected: 0001
33. Accuracy: 84.848485, Detected number: 3, Expected: 0003
34. Accuracy: 82.352941, Detected number: 0, Expected: 0004
35. Accuracy: 82.857143, Detected number: 7, Expected: 0007
36. Accuracy: 83.333333, Detected number: 2, Expected: 0002
37. Accuracy: 81.081081, Detected number: 2, Expected: 0007
38. Accuracy: 81.578947, Detected number: 1, Expected: 0001
39. Accuracy: 82.051282, Detected number: 2, Expected: 0002
40. Accuracy: 82.500000, Detected number: 1, Expected: 0001
41. Accuracy: 82.926829, Detected number: 1, Expected: 0001
42. Accuracy: 83.333333, Detected number: 7, Expected: 0007
43. Accuracy: 83.720930, Detected number: 4, Expected: 0004
44. Accuracy: 84.090909, Detected number: 2, Expected: 0002
45. Accuracy: 82.222222, Detected number: 8, Expected: 0003
46. Accuracy: 82.608696, Detected number: 5, Expected: 0005
47. Accuracy: 80.851064, Detected number: 0, Expected: 0001
48. Accuracy: 81.250000, Detected number: 2, Expected: 0002
49. Accuracy: 81.632653, Detected number: 4, Expected: 0004
50. Accuracy: 82.000000, Detected number: 4, Expected: 0004
51. Accuracy: 82.352941, Detected number: 6, Expected: 0006
52. Accuracy: 80.769231, Detected number: 2, Expected: 0003
53. Accuracy: 79.245283, Detected number: 0, Expected: 0005
54. Accuracy: 79.629630, Detected number: 5, Expected: 0005
55. Accuracy: 80.000000, Detected number: 6, Expected: 0006
56. Accuracy: 80.357143, Detected number: 0, Expected: 0000
57. Accuracy: 80.701754, Detected number: 4, Expected: 0004
58. Accuracy: 81.034483, Detected number: 1, Expected: 0001
59. Accuracy: 81.355932, Detected number: 9, Expected: 0009
60. Accuracy: 80.000000, Detected number: 6, Expected: 0005
61. Accuracy: 80.327869, Detected number: 7, Expected: 0007
62. Accuracy: 79.032258, Detected number: 2, Expected: 0008
63. Accuracy: 79.365079, Detected number: 9, Expected: 0009
64. Accuracy: 79.687500, Detected number: 3, Expected: 0003
65. Accuracy: 80.000000, Detected number: 7, Expected: 0007
66. Accuracy: 80.303030, Detected number: 4, Expected: 0004
67. Accuracy: 80.597015, Detected number: 6, Expected: 0006
68. Accuracy: 80.882353, Detected number: 4, Expected: 0004
69. Accuracy: 79.710145, Detected number: 7, Expected: 0003
70. Accuracy: 80.000000, Detected number: 0, Expected: 0000
71. Accuracy: 80.281690, Detected number: 7, Expected: 0007
72. Accuracy: 80.555556, Detected number: 0, Expected: 0000
73. Accuracy: 79.452055, Detected number: 9, Expected: 0002
74. Accuracy: 78.378378, Detected number: 8, Expected: 0009
75. Accuracy: 78.666667, Detected number: 1, Expected: 0001
76. Accuracy: 78.947368, Detected number: 7, Expected: 0007
77. Accuracy: 79.220779, Detected number: 3, Expected: 0003
78. Accuracy: 79.487179, Detected number: 2, Expected: 0002
79. Accuracy: 78.481013, Detected number: 8, Expected: 0009
80. Accuracy: 77.500000, Detected number: 8, Expected: 0007
81. Accuracy: 77.777778, Detected number: 7, Expected: 0007
82. Accuracy: 78.048780, Detected number: 6, Expected: 0006
83. Accuracy: 78.313253, Detected number: 2, Expected: 0002
84. Accuracy: 78.571429, Detected number: 7, Expected: 0007
85. Accuracy: 78.823529, Detected number: 8, Expected: 0008
86. Accuracy: 79.069767, Detected number: 4, Expected: 0004
87. Accuracy: 78.160920, Detected number: 8, Expected: 0007
88. Accuracy: 78.409091, Detected number: 3, Expected: 0003
89. Accuracy: 78.651685, Detected number: 6, Expected: 0006
90. Accuracy: 78.888889, Detected number: 1, Expected: 0001
91. Accuracy: 79.120879, Detected number: 3, Expected: 0003
92. Accuracy: 79.347826, Detected number: 6, Expected: 0006
93. Accuracy: 79.569892, Detected number: 9, Expected: 0009
94. Accuracy: 78.723404, Detected number: 2, Expected: 0003
95. Accuracy: 78.947368, Detected number: 1, Expected: 0001
96. Accuracy: 78.125000, Detected number: 6, Expected: 0004
97. Accuracy: 77.319588, Detected number: 0, Expected: 0001
98. Accuracy: 76.530612, Detected number: 1, Expected: 0007
99. Accuracy: 76.767677, Detected number: 6, Expected: 0006
100. Accuracy: 77.000000, Detected number: 9, Expected: 0009
Accuracy: 77.000000
$stop called at time : 900235 ns : File "E:/NN Accelerator/src/fpga/tb/top_sim.v" Line 358
Configuration completed                      0 ns
1. Accuracy: 100.000000, Detected number: 7, Expected: 0007
2. Accuracy: 100.000000, Detected number: 2, Expected: 0002
3. Accuracy: 100.000000, Detected number: 1, Expected: 0001
4. Accuracy: 100.000000, Detected number: 0, Expected: 0000
5. Accuracy: 100.000000, Detected number: 4, Expected: 0004
6. Accuracy: 100.000000, Detected number: 1, Expected: 0001
7. Accuracy: 100.000000, Detected number: 4, Expected: 0004
8. Accuracy: 100.000000, Detected number: 9, Expected: 0009
9. Accuracy: 88.888889, Detected number: 2, Expected: 0005
10. Accuracy: 80.000000, Detected number: 4, Expected: 0009
11. Accuracy: 81.818182, Detected number: 0, Expected: 0000
12. Accuracy: 75.000000, Detected number: 8, Expected: 0006
13. Accuracy: 76.923077, Detected number: 9, Expected: 0009
14. Accuracy: 78.571429, Detected number: 0, Expected: 0000
15. Accuracy: 80.000000, Detected number: 1, Expected: 0001
16. Accuracy: 81.250000, Detected number: 5, Expected: 0005
17. Accuracy: 76.470588, Detected number: 4, Expected: 0009
18. Accuracy: 77.777778, Detected number: 7, Expected: 0007
19. Accuracy: 73.684211, Detected number: 8, Expected: 0003
20. Accuracy: 75.000000, Detected number: 4, Expected: 0004
21. Accuracy: 76.190476, Detected number: 9, Expected: 0009
22. Accuracy: 77.272727, Detected number: 6, Expected: 0006
23. Accuracy: 78.260870, Detected number: 6, Expected: 0006
24. Accuracy: 79.166667, Detected number: 5, Expected: 0005
25. Accuracy: 80.000000, Detected number: 4, Expected: 0004
26. Accuracy: 80.769231, Detected number: 0, Expected: 0000
27. Accuracy: 81.481481, Detected number: 7, Expected: 0007
28. Accuracy: 82.142857, Detected number: 4, Expected: 0004
29. Accuracy: 82.758621, Detected number: 0, Expected: 0000
30. Accuracy: 83.333333, Detected number: 1, Expected: 0001
31. Accuracy: 83.870968, Detected number: 3, Expected: 0003
32. Accuracy: 84.375000, Detected number: 1, Expected: 0001
33. Accuracy: 84.848485, Detected number: 3, Expected: 0003
34. Accuracy: 82.352941, Detected number: 0, Expected: 0004
35. Accuracy: 82.857143, Detected number: 7, Expected: 0007
36. Accuracy: 83.333333, Detected number: 2, Expected: 0002
37. Accuracy: 83.783784, Detected number: 7, Expected: 0007
38. Accuracy: 84.210526, Detected number: 1, Expected: 0001
39. Accuracy: 84.615385, Detected number: 2, Expected: 0002
40. Accuracy: 85.000000, Detected number: 1, Expected: 0001
41. Accuracy: 85.365854, Detected number: 1, Expected: 0001
42. Accuracy: 85.714286, Detected number: 7, Expected: 0007
43. Accuracy: 86.046512, Detected number: 4, Expected: 0004
44. Accuracy: 84.090909, Detected number: 3, Expected: 0002
45. Accuracy: 82.222222, Detected number: 8, Expected: 0003
46. Accuracy: 82.608696, Detected number: 5, Expected: 0005
47. Accuracy: 82.978723, Detected number: 1, Expected: 0001
48. Accuracy: 83.333333, Detected number: 2, Expected: 0002
49. Accuracy: 81.632653, Detected number: 8, Expected: 0004
50. Accuracy: 82.000000, Detected number: 4, Expected: 0004
51. Accuracy: 82.352941, Detected number: 6, Expected: 0006
52. Accuracy: 82.692308, Detected number: 3, Expected: 0003
53. Accuracy: 83.018868, Detected number: 5, Expected: 0005
54. Accuracy: 83.333333, Detected number: 5, Expected: 0005
55. Accuracy: 83.636364, Detected number: 6, Expected: 0006
56. Accuracy: 83.928571, Detected number: 0, Expected: 0000
57. Accuracy: 84.210526, Detected number: 4, Expected: 0004
58. Accuracy: 84.482759, Detected number: 1, Expected: 0001
59. Accuracy: 84.745763, Detected number: 9, Expected: 0009
60. Accuracy: 83.333333, Detected number: 6, Expected: 0005
61. Accuracy: 83.606557, Detected number: 7, Expected: 0007
62. Accuracy: 83.870968, Detected number: 8, Expected: 0008
63. Accuracy: 84.126984, Detected number: 9, Expected: 0009
64. Accuracy: 84.375000, Detected number: 3, Expected: 0003
65. Accuracy: 84.615385, Detected number: 7, Expected: 0007
66. Accuracy: 84.848485, Detected number: 4, Expected: 0004
67. Accuracy: 85.074627, Detected number: 6, Expected: 0006
68. Accuracy: 85.294118, Detected number: 4, Expected: 0004
69. Accuracy: 85.507246, Detected number: 3, Expected: 0003
70. Accuracy: 85.714286, Detected number: 0, Expected: 0000
71. Accuracy: 85.915493, Detected number: 7, Expected: 0007
72. Accuracy: 86.111111, Detected number: 0, Expected: 0000
73. Accuracy: 84.931507, Detected number: 3, Expected: 0002
74. Accuracy: 85.135135, Detected number: 9, Expected: 0009
75. Accuracy: 85.333333, Detected number: 1, Expected: 0001
76. Accuracy: 85.526316, Detected number: 7, Expected: 0007
77. Accuracy: 85.714286, Detected number: 3, Expected: 0003
78. Accuracy: 85.897436, Detected number: 2, Expected: 0002
79. Accuracy: 84.810127, Detected number: 8, Expected: 0009
80. Accuracy: 83.750000, Detected number: 8, Expected: 0007
81. Accuracy: 83.950617, Detected number: 7, Expected: 0007
82. Accuracy: 84.146341, Detected number: 6, Expected: 0006
83. Accuracy: 84.337349, Detected number: 2, Expected: 0002
84. Accuracy: 84.523810, Detected number: 7, Expected: 0007
85. Accuracy: 84.705882, Detected number: 8, Expected: 0008
86. Accuracy: 84.883721, Detected number: 4, Expected: 0004
87. Accuracy: 85.057471, Detected number: 7, Expected: 0007
88. Accuracy: 85.227273, Detected number: 3, Expected: 0003
89. Accuracy: 85.393258, Detected number: 6, Expected: 0006
90. Accuracy: 85.555556, Detected number: 1, Expected: 0001
91. Accuracy: 85.714286, Detected number: 3, Expected: 0003
92. Accuracy: 85.869565, Detected number: 6, Expected: 0006
93. Accuracy: 86.021505, Detected number: 9, Expected: 0009
94. Accuracy: 86.170213, Detected number: 3, Expected: 0003
95. Accuracy: 86.315789, Detected number: 1, Expected: 0001
96. Accuracy: 85.416667, Detected number: 9, Expected: 0004
97. Accuracy: 85.567010, Detected number: 1, Expected: 0001
98. Accuracy: 85.714286, Detected number: 7, Expected: 0007
99. Accuracy: 85.858586, Detected number: 6, Expected: 0006
100. Accuracy: 86.000000, Detected number: 9, Expected: 0009
Accuracy: 86.000000
$stop called at time : 900235 ns : File "E:/NN Accelerator/src/fpga/tb/top_sim.v" Line 358
Configuration completed                      0 ns
1. Accuracy: 100.000000, Detected number: 7, Expected: 0007
2. Accuracy: 50.000000, Detected number: 1, Expected: 0002
3. Accuracy: 66.666667, Detected number: 1, Expected: 0001
4. Accuracy: 75.000000, Detected number: 0, Expected: 0000
5. Accuracy: 60.000000, Detected number: 0, Expected: 0004
6. Accuracy: 66.666667, Detected number: 1, Expected: 0001
7. Accuracy: 71.428571, Detected number: 4, Expected: 0004
8. Accuracy: 62.500000, Detected number: 7, Expected: 0009
9. Accuracy: 66.666667, Detected number: 5, Expected: 0005
10. Accuracy: 60.000000, Detected number: 4, Expected: 0009
11. Accuracy: 63.636364, Detected number: 0, Expected: 0000
12. Accuracy: 66.666667, Detected number: 6, Expected: 0006
13. Accuracy: 69.230769, Detected number: 9, Expected: 0009
14. Accuracy: 71.428571, Detected number: 0, Expected: 0000
15. Accuracy: 73.333333, Detected number: 1, Expected: 0001
16. Accuracy: 75.000000, Detected number: 5, Expected: 0005
17. Accuracy: 76.470588, Detected number: 9, Expected: 0009
18. Accuracy: 77.777778, Detected number: 7, Expected: 0007
19. Accuracy: 73.684211, Detected number: 8, Expected: 0003
20. Accuracy: 75.000000, Detected number: 4, Expected: 0004
21. Accuracy: 76.190476, Detected number: 9, Expected: 0009
22. Accuracy: 77.272727, Detected number: 6, Expected: 0006
23. Accuracy: 78.260870, Detected number: 6, Expected: 0006
24. Accuracy: 79.166667, Detected number: 5, Expected: 0005
25. Accuracy: 80.000000, Detected number: 4, Expected: 0004
26. Accuracy: 80.769231, Detected number: 0, Expected: 0000
27. Accuracy: 81.481481, Detected number: 7, Expected: 0007
28. Accuracy: 82.142857, Detected number: 4, Expected: 0004
29. Accuracy: 82.758621, Detected number: 0, Expected: 0000
30. Accuracy: 83.333333, Detected number: 1, Expected: 0001
31. Accuracy: 83.870968, Detected number: 3, Expected: 0003
32. Accuracy: 84.375000, Detected number: 1, Expected: 0001
33. Accuracy: 84.848485, Detected number: 3, Expected: 0003
34. Accuracy: 82.352941, Detected number: 0, Expected: 0004
35. Accuracy: 82.857143, Detected number: 7, Expected: 0007
36. Accuracy: 83.333333, Detected number: 2, Expected: 0002
37. Accuracy: 81.081081, Detected number: 2, Expected: 0007
38. Accuracy: 81.578947, Detected number: 1, Expected: 0001
39. Accuracy: 82.051282, Detected number: 2, Expected: 0002
40. Accuracy: 82.500000, Detected number: 1, Expected: 0001
41. Accuracy: 82.926829, Detected number: 1, Expected: 0001
42. Accuracy: 83.333333, Detected number: 7, Expected: 0007
43. Accuracy: 81.395349, Detected number: 9, Expected: 0004
44. Accuracy: 79.545455, Detected number: 1, Expected: 0002
45. Accuracy: 77.777778, Detected number: 1, Expected: 0003
46. Accuracy: 76.086957, Detected number: 0, Expected: 0005
47. Accuracy: 76.595745, Detected number: 1, Expected: 0001
48. Accuracy: 77.083333, Detected number: 2, Expected: 0002
49. Accuracy: 75.510204, Detected number: 2, Expected: 0004
50. Accuracy: 76.000000, Detected number: 4, Expected: 0004
51. Accuracy: 76.470588, Detected number: 6, Expected: 0006
52. Accuracy: 76.923077, Detected number: 3, Expected: 0003
53. Accuracy: 77.358491, Detected number: 5, Expected: 0005
54. Accuracy: 77.777778, Detected number: 5, Expected: 0005
55. Accuracy: 78.181818, Detected number: 6, Expected: 0006
56. Accuracy: 78.571429, Detected number: 0, Expected: 0000
57. Accuracy: 78.947368, Detected number: 4, Expected: 0004
58. Accuracy: 79.310345, Detected number: 1, Expected: 0001
59. Accuracy: 79.661017, Detected number: 9, Expected: 0009
60. Accuracy: 80.000000, Detected number: 5, Expected: 0005
61. Accuracy: 80.327869, Detected number: 7, Expected: 0007
62. Accuracy: 80.645161, Detected number: 8, Expected: 0008
63. Accuracy: 80.952381, Detected number: 9, Expected: 0009
64. Accuracy: 81.250000, Detected number: 3, Expected: 0003
65. Accuracy: 81.538462, Detected number: 7, Expected: 0007
66. Accuracy: 81.818182, Detected number: 4, Expected: 0004
67. Accurac